{
  "extends": ["tslint:recommended", "tslint-react", "tslint-config-prettier"],
  "rules": {
    "no-console": false,
    "object-literal-sort-keys": false,
    "interface-name": false,
    "ordered-imports": false
  },
  "linterOptions": {
    "exclude": [
      "config/**/*.js",
      "node_modules/**/*.ts"
    ]
  }
}
